simulation/qsim/TP2.msim.vcd
$comment
	File created using the following command:
		vcd file TP2.msim.vcd -direction
$end
$date
	Sat Jun 01 16:38:03 2019
$end
$version
	ModelSim Version 10.5b
$end
$timescale
	1ps
$end

$scope module Pipeline_vlg_vec_tst $end
$var reg 4 ! ALU [3:0] $end
$var reg 1 " CLK2 $end
$var reg 1 # CLK3 $end
$var reg 1 $ CLK4 $end
$var reg 10 % Dadd [9:0] $end
$var reg 1 & hold_sim $end
$var reg 35 ' IE_C [34:0] $end
$var reg 1 ( KMx $end
$var reg 1 ) MR $end
$var reg 1 * MW $end
$var reg 6 + OEA [5:0] $end
$var reg 6 , OEB [5:0] $end
$var reg 2 - SH [1:0] $end
$var reg 7 . TYPE [6:0] $end
$var wire 1 / ALU_MIR [3] $end
$var wire 1 0 ALU_MIR [2] $end
$var wire 1 1 ALU_MIR [1] $end
$var wire 1 2 ALU_MIR [0] $end
$var wire 1 3 Dadd_MIR [9] $end
$var wire 1 4 Dadd_MIR [8] $end
$var wire 1 5 Dadd_MIR [7] $end
$var wire 1 6 Dadd_MIR [6] $end
$var wire 1 7 Dadd_MIR [5] $end
$var wire 1 8 Dadd_MIR [4] $end
$var wire 1 9 Dadd_MIR [3] $end
$var wire 1 : Dadd_MIR [2] $end
$var wire 1 ; Dadd_MIR [1] $end
$var wire 1 < Dadd_MIR [0] $end
$var wire 1 = HOLD $end
$var wire 1 > IE_C_MIR [34] $end
$var wire 1 ? IE_C_MIR [33] $end
$var wire 1 @ IE_C_MIR [32] $end
$var wire 1 A IE_C_MIR [31] $end
$var wire 1 B IE_C_MIR [30] $end
$var wire 1 C IE_C_MIR [29] $end
$var wire 1 D IE_C_MIR [28] $end
$var wire 1 E IE_C_MIR [27] $end
$var wire 1 F IE_C_MIR [26] $end
$var wire 1 G IE_C_MIR [25] $end
$var wire 1 H IE_C_MIR [24] $end
$var wire 1 I IE_C_MIR [23] $end
$var wire 1 J IE_C_MIR [22] $end
$var wire 1 K IE_C_MIR [21] $end
$var wire 1 L IE_C_MIR [20] $end
$var wire 1 M IE_C_MIR [19] $end
$var wire 1 N IE_C_MIR [18] $end
$var wire 1 O IE_C_MIR [17] $end
$var wire 1 P IE_C_MIR [16] $end
$var wire 1 Q IE_C_MIR [15] $end
$var wire 1 R IE_C_MIR [14] $end
$var wire 1 S IE_C_MIR [13] $end
$var wire 1 T IE_C_MIR [12] $end
$var wire 1 U IE_C_MIR [11] $end
$var wire 1 V IE_C_MIR [10] $end
$var wire 1 W IE_C_MIR [9] $end
$var wire 1 X IE_C_MIR [8] $end
$var wire 1 Y IE_C_MIR [7] $end
$var wire 1 Z IE_C_MIR [6] $end
$var wire 1 [ IE_C_MIR [5] $end
$var wire 1 \ IE_C_MIR [4] $end
$var wire 1 ] IE_C_MIR [3] $end
$var wire 1 ^ IE_C_MIR [2] $end
$var wire 1 _ IE_C_MIR [1] $end
$var wire 1 ` IE_C_MIR [0] $end
$var wire 1 a KMx_MIR [1] $end
$var wire 1 b MR_MIR [1] $end
$var wire 1 c MW_MIR [1] $end
$var wire 1 d OEA_MIR [5] $end
$var wire 1 e OEA_MIR [4] $end
$var wire 1 f OEA_MIR [3] $end
$var wire 1 g OEA_MIR [2] $end
$var wire 1 h OEA_MIR [1] $end
$var wire 1 i OEA_MIR [0] $end
$var wire 1 j OEB_MIR [5] $end
$var wire 1 k OEB_MIR [4] $end
$var wire 1 l OEB_MIR [3] $end
$var wire 1 m OEB_MIR [2] $end
$var wire 1 n OEB_MIR [1] $end
$var wire 1 o OEB_MIR [0] $end
$var wire 1 p SH_MIR [1] $end
$var wire 1 q SH_MIR [0] $end
$var wire 1 r testigo_IE_C_stage3 $end
$var wire 1 s testigo_IE_C_stage4 $end
$var wire 1 t testigo_IE_C_stage5 $end

$scope module i1 $end
$var wire 1 u gnd $end
$var wire 1 v vcc $end
$var wire 1 w unknown $end
$var tri1 1 x devclrn $end
$var tri1 1 y devpor $end
$var tri1 1 z devoe $end
$var wire 1 { TYPE[6]~input_o $end
$var wire 1 | TYPE[5]~input_o $end
$var wire 1 } TYPE[4]~input_o $end
$var wire 1 ~ TYPE[3]~input_o $end
$var wire 1 !! TYPE[2]~input_o $end
$var wire 1 "! TYPE[1]~input_o $end
$var wire 1 #! TYPE[0]~input_o $end
$var wire 1 $! HOLD~output_o $end
$var wire 1 %! testigo_IE_C_stage5~output_o $end
$var wire 1 &! testigo_IE_C_stage4~output_o $end
$var wire 1 '! testigo_IE_C_stage3~output_o $end
$var wire 1 (! ALU_MIR[3]~output_o $end
$var wire 1 )! ALU_MIR[2]~output_o $end
$var wire 1 *! ALU_MIR[1]~output_o $end
$var wire 1 +! ALU_MIR[0]~output_o $end
$var wire 1 ,! Dadd_MIR[9]~output_o $end
$var wire 1 -! Dadd_MIR[8]~output_o $end
$var wire 1 .! Dadd_MIR[7]~output_o $end
$var wire 1 /! Dadd_MIR[6]~output_o $end
$var wire 1 0! Dadd_MIR[5]~output_o $end
$var wire 1 1! Dadd_MIR[4]~output_o $end
$var wire 1 2! Dadd_MIR[3]~output_o $end
$var wire 1 3! Dadd_MIR[2]~output_o $end
$var wire 1 4! Dadd_MIR[1]~output_o $end
$var wire 1 5! Dadd_MIR[0]~output_o $end
$var wire 1 6! IE_C_MIR[34]~output_o $end
$var wire 1 7! IE_C_MIR[33]~output_o $end
$var wire 1 8! IE_C_MIR[32]~output_o $end
$var wire 1 9! IE_C_MIR[31]~output_o $end
$var wire 1 :! IE_C_MIR[30]~output_o $end
$var wire 1 ;! IE_C_MIR[29]~output_o $end
$var wire 1 <! IE_C_MIR[28]~output_o $end
$var wire 1 =! IE_C_MIR[27]~output_o $end
$var wire 1 >! IE_C_MIR[26]~output_o $end
$var wire 1 ?! IE_C_MIR[25]~output_o $end
$var wire 1 @! IE_C_MIR[24]~output_o $end
$var wire 1 A! IE_C_MIR[23]~output_o $end
$var wire 1 B! IE_C_MIR[22]~output_o $end
$var wire 1 C! IE_C_MIR[21]~output_o $end
$var wire 1 D! IE_C_MIR[20]~output_o $end
$var wire 1 E! IE_C_MIR[19]~output_o $end
$var wire 1 F! IE_C_MIR[18]~output_o $end
$var wire 1 G! IE_C_MIR[17]~output_o $end
$var wire 1 H! IE_C_MIR[16]~output_o $end
$var wire 1 I! IE_C_MIR[15]~output_o $end
$var wire 1 J! IE_C_MIR[14]~output_o $end
$var wire 1 K! IE_C_MIR[13]~output_o $end
$var wire 1 L! IE_C_MIR[12]~output_o $end
$var wire 1 M! IE_C_MIR[11]~output_o $end
$var wire 1 N! IE_C_MIR[10]~output_o $end
$var wire 1 O! IE_C_MIR[9]~output_o $end
$var wire 1 P! IE_C_MIR[8]~output_o $end
$var wire 1 Q! IE_C_MIR[7]~output_o $end
$var wire 1 R! IE_C_MIR[6]~output_o $end
$var wire 1 S! IE_C_MIR[5]~output_o $end
$var wire 1 T! IE_C_MIR[4]~output_o $end
$var wire 1 U! IE_C_MIR[3]~output_o $end
$var wire 1 V! IE_C_MIR[2]~output_o $end
$var wire 1 W! IE_C_MIR[1]~output_o $end
$var wire 1 X! IE_C_MIR[0]~output_o $end
$var wire 1 Y! KMx_MIR[1]~output_o $end
$var wire 1 Z! MR_MIR[1]~output_o $end
$var wire 1 [! MW_MIR[1]~output_o $end
$var wire 1 \! OEA_MIR[5]~output_o $end
$var wire 1 ]! OEA_MIR[4]~output_o $end
$var wire 1 ^! OEA_MIR[3]~output_o $end
$var wire 1 _! OEA_MIR[2]~output_o $end
$var wire 1 `! OEA_MIR[1]~output_o $end
$var wire 1 a! OEA_MIR[0]~output_o $end
$var wire 1 b! OEB_MIR[5]~output_o $end
$var wire 1 c! OEB_MIR[4]~output_o $end
$var wire 1 d! OEB_MIR[3]~output_o $end
$var wire 1 e! OEB_MIR[2]~output_o $end
$var wire 1 f! OEB_MIR[1]~output_o $end
$var wire 1 g! OEB_MIR[0]~output_o $end
$var wire 1 h! SH_MIR[1]~output_o $end
$var wire 1 i! SH_MIR[0]~output_o $end
$var wire 1 j! CLK4~input_o $end
$var wire 1 k! CLK3~input_o $end
$var wire 1 l! CLK2~input_o $end
$var wire 1 m! IE_C[2]~input_o $end
$var wire 1 n! hold_sim~input_o $end
$var wire 1 o! inst7|LPM_MUX_component|auto_generated|result_node[12]~0_combout $end
$var wire 1 p! ALU[3]~input_o $end
$var wire 1 q! inst7|LPM_MUX_component|auto_generated|result_node[62]~1_combout $end
$var wire 1 r! ALU[2]~input_o $end
$var wire 1 s! inst7|LPM_MUX_component|auto_generated|result_node[61]~2_combout $end
$var wire 1 t! ALU[1]~input_o $end
$var wire 1 u! inst7|LPM_MUX_component|auto_generated|result_node[60]~3_combout $end
$var wire 1 v! ALU[0]~input_o $end
$var wire 1 w! inst7|LPM_MUX_component|auto_generated|result_node[59]~4_combout $end
$var wire 1 x! Dadd[9]~input_o $end
$var wire 1 y! Dadd[8]~input_o $end
$var wire 1 z! Dadd[7]~input_o $end
$var wire 1 {! Dadd[6]~input_o $end
$var wire 1 |! Dadd[5]~input_o $end
$var wire 1 }! Dadd[4]~input_o $end
$var wire 1 ~! Dadd[3]~input_o $end
$var wire 1 !" Dadd[2]~input_o $end
$var wire 1 "" Dadd[1]~input_o $end
$var wire 1 #" Dadd[0]~input_o $end
$var wire 1 $" IE_C[34]~input_o $end
$var wire 1 %" inst7|LPM_MUX_component|auto_generated|result_node[44]~7_combout $end
$var wire 1 &" IE_C[33]~input_o $end
$var wire 1 '" inst7|LPM_MUX_component|auto_generated|result_node[43]~8_combout $end
$var wire 1 (" IE_C[32]~input_o $end
$var wire 1 )" inst7|LPM_MUX_component|auto_generated|result_node[42]~9_combout $end
$var wire 1 *" IE_C[31]~input_o $end
$var wire 1 +" inst7|LPM_MUX_component|auto_generated|result_node[41]~10_combout $end
$var wire 1 ," IE_C[30]~input_o $end
$var wire 1 -" inst7|LPM_MUX_component|auto_generated|result_node[40]~11_combout $end
$var wire 1 ." IE_C[29]~input_o $end
$var wire 1 /" inst7|LPM_MUX_component|auto_generated|result_node[39]~12_combout $end
$var wire 1 0" IE_C[28]~input_o $end
$var wire 1 1" inst7|LPM_MUX_component|auto_generated|result_node[38]~13_combout $end
$var wire 1 2" IE_C[27]~input_o $end
$var wire 1 3" inst7|LPM_MUX_component|auto_generated|result_node[37]~14_combout $end
$var wire 1 4" IE_C[26]~input_o $end
$var wire 1 5" inst7|LPM_MUX_component|auto_generated|result_node[36]~15_combout $end
$var wire 1 6" IE_C[25]~input_o $end
$var wire 1 7" inst7|LPM_MUX_component|auto_generated|result_node[35]~16_combout $end
$var wire 1 8" IE_C[24]~input_o $end
$var wire 1 9" inst7|LPM_MUX_component|auto_generated|result_node[34]~17_combout $end
$var wire 1 :" IE_C[23]~input_o $end
$var wire 1 ;" inst7|LPM_MUX_component|auto_generated|result_node[33]~18_combout $end
$var wire 1 <" IE_C[22]~input_o $end
$var wire 1 =" inst7|LPM_MUX_component|auto_generated|result_node[32]~19_combout $end
$var wire 1 >" IE_C[21]~input_o $end
$var wire 1 ?" inst7|LPM_MUX_component|auto_generated|result_node[31]~20_combout $end
$var wire 1 @" IE_C[20]~input_o $end
$var wire 1 A" inst7|LPM_MUX_component|auto_generated|result_node[30]~21_combout $end
$var wire 1 B" IE_C[19]~input_o $end
$var wire 1 C" inst7|LPM_MUX_component|auto_generated|result_node[29]~22_combout $end
$var wire 1 D" IE_C[18]~input_o $end
$var wire 1 E" inst7|LPM_MUX_component|auto_generated|result_node[28]~23_combout $end
$var wire 1 F" IE_C[17]~input_o $end
$var wire 1 G" inst7|LPM_MUX_component|auto_generated|result_node[27]~24_combout $end
$var wire 1 H" IE_C[16]~input_o $end
$var wire 1 I" inst7|LPM_MUX_component|auto_generated|result_node[26]~25_combout $end
$var wire 1 J" IE_C[15]~input_o $end
$var wire 1 K" inst7|LPM_MUX_component|auto_generated|result_node[25]~26_combout $end
$var wire 1 L" IE_C[14]~input_o $end
$var wire 1 M" inst7|LPM_MUX_component|auto_generated|result_node[24]~27_combout $end
$var wire 1 N" IE_C[13]~input_o $end
$var wire 1 O" inst7|LPM_MUX_component|auto_generated|result_node[23]~28_combout $end
$var wire 1 P" IE_C[12]~input_o $end
$var wire 1 Q" inst7|LPM_MUX_component|auto_generated|result_node[22]~29_combout $end
$var wire 1 R" IE_C[11]~input_o $end
$var wire 1 S" inst7|LPM_MUX_component|auto_generated|result_node[21]~30_combout $end
$var wire 1 T" IE_C[10]~input_o $end
$var wire 1 U" inst7|LPM_MUX_component|auto_generated|result_node[20]~31_combout $end
$var wire 1 V" IE_C[9]~input_o $end
$var wire 1 W" inst7|LPM_MUX_component|auto_generated|result_node[19]~32_combout $end
$var wire 1 X" IE_C[8]~input_o $end
$var wire 1 Y" inst7|LPM_MUX_component|auto_generated|result_node[18]~33_combout $end
$var wire 1 Z" IE_C[7]~input_o $end
$var wire 1 [" inst7|LPM_MUX_component|auto_generated|result_node[17]~34_combout $end
$var wire 1 \" IE_C[6]~input_o $end
$var wire 1 ]" inst7|LPM_MUX_component|auto_generated|result_node[16]~35_combout $end
$var wire 1 ^" IE_C[5]~input_o $end
$var wire 1 _" inst7|LPM_MUX_component|auto_generated|result_node[15]~36_combout $end
$var wire 1 `" IE_C[4]~input_o $end
$var wire 1 a" inst7|LPM_MUX_component|auto_generated|result_node[14]~37_combout $end
$var wire 1 b" IE_C[3]~input_o $end
$var wire 1 c" inst7|LPM_MUX_component|auto_generated|result_node[13]~38_combout $end
$var wire 1 d" IE_C[1]~input_o $end
$var wire 1 e" inst7|LPM_MUX_component|auto_generated|result_node[11]~39_combout $end
$var wire 1 f" IE_C[0]~input_o $end
$var wire 1 g" inst7|LPM_MUX_component|auto_generated|result_node[10]~40_combout $end
$var wire 1 h" KMx~input_o $end
$var wire 1 i" MR~input_o $end
$var wire 1 j" MW~input_o $end
$var wire 1 k" OEA[5]~input_o $end
$var wire 1 l" OEA[4]~input_o $end
$var wire 1 m" OEA[3]~input_o $end
$var wire 1 n" OEA[2]~input_o $end
$var wire 1 o" OEA[1]~input_o $end
$var wire 1 p" OEA[0]~input_o $end
$var wire 1 q" OEB[5]~input_o $end
$var wire 1 r" OEB[4]~input_o $end
$var wire 1 s" OEB[3]~input_o $end
$var wire 1 t" OEB[2]~input_o $end
$var wire 1 u" OEB[1]~input_o $end
$var wire 1 v" OEB[0]~input_o $end
$var wire 1 w" SH[1]~input_o $end
$var wire 1 x" inst7|LPM_MUX_component|auto_generated|result_node[58]~5_combout $end
$var wire 1 y" SH[0]~input_o $end
$var wire 1 z" inst7|LPM_MUX_component|auto_generated|result_node[57]~6_combout $end
$var wire 1 {" inst3|dffs [72] $end
$var wire 1 |" inst3|dffs [71] $end
$var wire 1 }" inst3|dffs [70] $end
$var wire 1 ~" inst3|dffs [69] $end
$var wire 1 !# inst3|dffs [68] $end
$var wire 1 "# inst3|dffs [67] $end
$var wire 1 ## inst3|dffs [66] $end
$var wire 1 $# inst3|dffs [65] $end
$var wire 1 %# inst3|dffs [64] $end
$var wire 1 &# inst3|dffs [63] $end
$var wire 1 '# inst3|dffs [62] $end
$var wire 1 (# inst3|dffs [61] $end
$var wire 1 )# inst3|dffs [60] $end
$var wire 1 *# inst3|dffs [59] $end
$var wire 1 +# inst3|dffs [58] $end
$var wire 1 ,# inst3|dffs [57] $end
$var wire 1 -# inst3|dffs [56] $end
$var wire 1 .# inst3|dffs [55] $end
$var wire 1 /# inst3|dffs [54] $end
$var wire 1 0# inst3|dffs [53] $end
$var wire 1 1# inst3|dffs [52] $end
$var wire 1 2# inst3|dffs [51] $end
$var wire 1 3# inst3|dffs [50] $end
$var wire 1 4# inst3|dffs [49] $end
$var wire 1 5# inst3|dffs [48] $end
$var wire 1 6# inst3|dffs [47] $end
$var wire 1 7# inst3|dffs [46] $end
$var wire 1 8# inst3|dffs [45] $end
$var wire 1 9# inst3|dffs [44] $end
$var wire 1 :# inst3|dffs [43] $end
$var wire 1 ;# inst3|dffs [42] $end
$var wire 1 <# inst3|dffs [41] $end
$var wire 1 =# inst3|dffs [40] $end
$var wire 1 ># inst3|dffs [39] $end
$var wire 1 ?# inst3|dffs [38] $end
$var wire 1 @# inst3|dffs [37] $end
$var wire 1 A# inst3|dffs [36] $end
$var wire 1 B# inst3|dffs [35] $end
$var wire 1 C# inst3|dffs [34] $end
$var wire 1 D# inst3|dffs [33] $end
$var wire 1 E# inst3|dffs [32] $end
$var wire 1 F# inst3|dffs [31] $end
$var wire 1 G# inst3|dffs [30] $end
$var wire 1 H# inst3|dffs [29] $end
$var wire 1 I# inst3|dffs [28] $end
$var wire 1 J# inst3|dffs [27] $end
$var wire 1 K# inst3|dffs [26] $end
$var wire 1 L# inst3|dffs [25] $end
$var wire 1 M# inst3|dffs [24] $end
$var wire 1 N# inst3|dffs [23] $end
$var wire 1 O# inst3|dffs [22] $end
$var wire 1 P# inst3|dffs [21] $end
$var wire 1 Q# inst3|dffs [20] $end
$var wire 1 R# inst3|dffs [19] $end
$var wire 1 S# inst3|dffs [18] $end
$var wire 1 T# inst3|dffs [17] $end
$var wire 1 U# inst3|dffs [16] $end
$var wire 1 V# inst3|dffs [15] $end
$var wire 1 W# inst3|dffs [14] $end
$var wire 1 X# inst3|dffs [13] $end
$var wire 1 Y# inst3|dffs [12] $end
$var wire 1 Z# inst3|dffs [11] $end
$var wire 1 [# inst3|dffs [10] $end
$var wire 1 \# inst3|dffs [9] $end
$var wire 1 ]# inst3|dffs [8] $end
$var wire 1 ^# inst3|dffs [7] $end
$var wire 1 _# inst3|dffs [6] $end
$var wire 1 `# inst3|dffs [5] $end
$var wire 1 a# inst3|dffs [4] $end
$var wire 1 b# inst3|dffs [3] $end
$var wire 1 c# inst3|dffs [2] $end
$var wire 1 d# inst3|dffs [1] $end
$var wire 1 e# inst3|dffs [0] $end
$var wire 1 f# inst2|dffs [72] $end
$var wire 1 g# inst2|dffs [71] $end
$var wire 1 h# inst2|dffs [70] $end
$var wire 1 i# inst2|dffs [69] $end
$var wire 1 j# inst2|dffs [68] $end
$var wire 1 k# inst2|dffs [67] $end
$var wire 1 l# inst2|dffs [66] $end
$var wire 1 m# inst2|dffs [65] $end
$var wire 1 n# inst2|dffs [64] $end
$var wire 1 o# inst2|dffs [63] $end
$var wire 1 p# inst2|dffs [62] $end
$var wire 1 q# inst2|dffs [61] $end
$var wire 1 r# inst2|dffs [60] $end
$var wire 1 s# inst2|dffs [59] $end
$var wire 1 t# inst2|dffs [58] $end
$var wire 1 u# inst2|dffs [57] $end
$var wire 1 v# inst2|dffs [56] $end
$var wire 1 w# inst2|dffs [55] $end
$var wire 1 x# inst2|dffs [54] $end
$var wire 1 y# inst2|dffs [53] $end
$var wire 1 z# inst2|dffs [52] $end
$var wire 1 {# inst2|dffs [51] $end
$var wire 1 |# inst2|dffs [50] $end
$var wire 1 }# inst2|dffs [49] $end
$var wire 1 ~# inst2|dffs [48] $end
$var wire 1 !$ inst2|dffs [47] $end
$var wire 1 "$ inst2|dffs [46] $end
$var wire 1 #$ inst2|dffs [45] $end
$var wire 1 $$ inst2|dffs [44] $end
$var wire 1 %$ inst2|dffs [43] $end
$var wire 1 &$ inst2|dffs [42] $end
$var wire 1 '$ inst2|dffs [41] $end
$var wire 1 ($ inst2|dffs [40] $end
$var wire 1 )$ inst2|dffs [39] $end
$var wire 1 *$ inst2|dffs [38] $end
$var wire 1 +$ inst2|dffs [37] $end
$var wire 1 ,$ inst2|dffs [36] $end
$var wire 1 -$ inst2|dffs [35] $end
$var wire 1 .$ inst2|dffs [34] $end
$var wire 1 /$ inst2|dffs [33] $end
$var wire 1 0$ inst2|dffs [32] $end
$var wire 1 1$ inst2|dffs [31] $end
$var wire 1 2$ inst2|dffs [30] $end
$var wire 1 3$ inst2|dffs [29] $end
$var wire 1 4$ inst2|dffs [28] $end
$var wire 1 5$ inst2|dffs [27] $end
$var wire 1 6$ inst2|dffs [26] $end
$var wire 1 7$ inst2|dffs [25] $end
$var wire 1 8$ inst2|dffs [24] $end
$var wire 1 9$ inst2|dffs [23] $end
$var wire 1 :$ inst2|dffs [22] $end
$var wire 1 ;$ inst2|dffs [21] $end
$var wire 1 <$ inst2|dffs [20] $end
$var wire 1 =$ inst2|dffs [19] $end
$var wire 1 >$ inst2|dffs [18] $end
$var wire 1 ?$ inst2|dffs [17] $end
$var wire 1 @$ inst2|dffs [16] $end
$var wire 1 A$ inst2|dffs [15] $end
$var wire 1 B$ inst2|dffs [14] $end
$var wire 1 C$ inst2|dffs [13] $end
$var wire 1 D$ inst2|dffs [12] $end
$var wire 1 E$ inst2|dffs [11] $end
$var wire 1 F$ inst2|dffs [10] $end
$var wire 1 G$ inst2|dffs [9] $end
$var wire 1 H$ inst2|dffs [8] $end
$var wire 1 I$ inst2|dffs [7] $end
$var wire 1 J$ inst2|dffs [6] $end
$var wire 1 K$ inst2|dffs [5] $end
$var wire 1 L$ inst2|dffs [4] $end
$var wire 1 M$ inst2|dffs [3] $end
$var wire 1 N$ inst2|dffs [2] $end
$var wire 1 O$ inst2|dffs [1] $end
$var wire 1 P$ inst2|dffs [0] $end
$var wire 1 Q$ inst1|dffs [72] $end
$var wire 1 R$ inst1|dffs [71] $end
$var wire 1 S$ inst1|dffs [70] $end
$var wire 1 T$ inst1|dffs [69] $end
$var wire 1 U$ inst1|dffs [68] $end
$var wire 1 V$ inst1|dffs [67] $end
$var wire 1 W$ inst1|dffs [66] $end
$var wire 1 X$ inst1|dffs [65] $end
$var wire 1 Y$ inst1|dffs [64] $end
$var wire 1 Z$ inst1|dffs [63] $end
$var wire 1 [$ inst1|dffs [62] $end
$var wire 1 \$ inst1|dffs [61] $end
$var wire 1 ]$ inst1|dffs [60] $end
$var wire 1 ^$ inst1|dffs [59] $end
$var wire 1 _$ inst1|dffs [58] $end
$var wire 1 `$ inst1|dffs [57] $end
$var wire 1 a$ inst1|dffs [56] $end
$var wire 1 b$ inst1|dffs [55] $end
$var wire 1 c$ inst1|dffs [54] $end
$var wire 1 d$ inst1|dffs [53] $end
$var wire 1 e$ inst1|dffs [52] $end
$var wire 1 f$ inst1|dffs [51] $end
$var wire 1 g$ inst1|dffs [50] $end
$var wire 1 h$ inst1|dffs [49] $end
$var wire 1 i$ inst1|dffs [48] $end
$var wire 1 j$ inst1|dffs [47] $end
$var wire 1 k$ inst1|dffs [46] $end
$var wire 1 l$ inst1|dffs [45] $end
$var wire 1 m$ inst1|dffs [44] $end
$var wire 1 n$ inst1|dffs [43] $end
$var wire 1 o$ inst1|dffs [42] $end
$var wire 1 p$ inst1|dffs [41] $end
$var wire 1 q$ inst1|dffs [40] $end
$var wire 1 r$ inst1|dffs [39] $end
$var wire 1 s$ inst1|dffs [38] $end
$var wire 1 t$ inst1|dffs [37] $end
$var wire 1 u$ inst1|dffs [36] $end
$var wire 1 v$ inst1|dffs [35] $end
$var wire 1 w$ inst1|dffs [34] $end
$var wire 1 x$ inst1|dffs [33] $end
$var wire 1 y$ inst1|dffs [32] $end
$var wire 1 z$ inst1|dffs [31] $end
$var wire 1 {$ inst1|dffs [30] $end
$var wire 1 |$ inst1|dffs [29] $end
$var wire 1 }$ inst1|dffs [28] $end
$var wire 1 ~$ inst1|dffs [27] $end
$var wire 1 !% inst1|dffs [26] $end
$var wire 1 "% inst1|dffs [25] $end
$var wire 1 #% inst1|dffs [24] $end
$var wire 1 $% inst1|dffs [23] $end
$var wire 1 %% inst1|dffs [22] $end
$var wire 1 &% inst1|dffs [21] $end
$var wire 1 '% inst1|dffs [20] $end
$var wire 1 (% inst1|dffs [19] $end
$var wire 1 )% inst1|dffs [18] $end
$var wire 1 *% inst1|dffs [17] $end
$var wire 1 +% inst1|dffs [16] $end
$var wire 1 ,% inst1|dffs [15] $end
$var wire 1 -% inst1|dffs [14] $end
$var wire 1 .% inst1|dffs [13] $end
$var wire 1 /% inst1|dffs [12] $end
$var wire 1 0% inst1|dffs [11] $end
$var wire 1 1% inst1|dffs [10] $end
$var wire 1 2% inst1|dffs [9] $end
$var wire 1 3% inst1|dffs [8] $end
$var wire 1 4% inst1|dffs [7] $end
$var wire 1 5% inst1|dffs [6] $end
$var wire 1 6% inst1|dffs [5] $end
$var wire 1 7% inst1|dffs [4] $end
$var wire 1 8% inst1|dffs [3] $end
$var wire 1 9% inst1|dffs [2] $end
$var wire 1 :% inst1|dffs [1] $end
$var wire 1 ;% inst1|dffs [0] $end
$upscope $end
$upscope $end
$enddefinitions $end
#0
$dumpvars
b0 !
0"
0#
0$
b0 %
1&
b0 '
0(
0)
0*
b0 +
b0 ,
b0 -
b0 .
02
01
00
0/
0<
0;
0:
09
08
07
06
05
04
03
0=
0`
0_
0^
0]
0\
0[
0Z
0Y
0X
0W
0V
0U
0T
0S
0R
0Q
0P
0O
0N
0M
0L
0K
0J
0I
0H
0G
0F
0E
0D
0C
0B
0A
0@
0?
0>
0a
0b
0c
0i
0h
0g
0f
0e
0d
0o
0n
0m
0l
0k
0j
0q
0p
0r
0s
0t
0u
1v
xw
1x
1y
1z
0{
0|
0}
0~
0!!
0"!
0#!
0$!
0%!
0&!
0'!
0(!
0)!
0*!
0+!
0,!
0-!
0.!
0/!
00!
01!
02!
03!
04!
05!
06!
07!
08!
09!
0:!
0;!
0<!
0=!
0>!
0?!
0@!
0A!
0B!
0C!
0D!
0E!
0F!
0G!
0H!
0I!
0J!
0K!
0L!
0M!
0N!
0O!
0P!
0Q!
0R!
0S!
0T!
0U!
0V!
0W!
0X!
0Y!
0Z!
0[!
0\!
0]!
0^!
0_!
0`!
0a!
0b!
0c!
0d!
0e!
0f!
0g!
0h!
0i!
0j!
0k!
0l!
0m!
1n!
0o!
0p!
0q!
0r!
0s!
0t!
0u!
0v!
0w!
0x!
0y!
0z!
0{!
0|!
0}!
0~!
0!"
0""
0#"
0$"
0%"
0&"
0'"
0("
0)"
0*"
0+"
0,"
0-"
0."
0/"
00"
01"
02"
03"
04"
05"
06"
07"
08"
09"
0:"
0;"
0<"
0="
0>"
0?"
0@"
0A"
0B"
0C"
0D"
0E"
0F"
0G"
0H"
0I"
0J"
0K"
0L"
0M"
0N"
0O"
0P"
0Q"
0R"
0S"
0T"
0U"
0V"
0W"
0X"
0Y"
0Z"
0["
0\"
0]"
0^"
0_"
0`"
0a"
0b"
0c"
0d"
0e"
0f"
0g"
0h"
0i"
0j"
0k"
0l"
0m"
0n"
0o"
0p"
0q"
0r"
0s"
0t"
0u"
0v"
0w"
0x"
0y"
0z"
ze#
zd#
zc#
zb#
za#
z`#
z_#
z^#
z]#
z\#
0[#
0Z#
0Y#
0X#
0W#
0V#
0U#
0T#
0S#
0R#
0Q#
0P#
0O#
0N#
0M#
0L#
0K#
0J#
0I#
0H#
0G#
0F#
0E#
0D#
0C#
0B#
0A#
0@#
0?#
0>#
0=#
0<#
0;#
0:#
09#
z8#
z7#
z6#
z5#
z4#
z3#
z2#
z1#
z0#
z/#
z.#
z-#
z,#
z+#
z*#
z)#
z(#
z'#
z&#
z%#
z$#
z##
z"#
z!#
z~"
z}"
z|"
z{"
zP$
zO$
zN$
zM$
zL$
zK$
zJ$
zI$
zH$
zG$
0F$
0E$
0D$
0C$
0B$
0A$
0@$
0?$
0>$
0=$
0<$
0;$
0:$
09$
08$
07$
06$
05$
04$
03$
02$
01$
00$
0/$
0.$
0-$
0,$
0+$
0*$
0)$
0($
0'$
0&$
0%$
0$$
z#$
z"$
z!$
z~#
z}#
z|#
z{#
zz#
zy#
zx#
zw#
zv#
0u#
0t#
0s#
0r#
0q#
0p#
zo#
zn#
zm#
zl#
zk#
zj#
zi#
zh#
zg#
zf#
0;%
0:%
09%
z8%
z7%
z6%
z5%
z4%
z3%
z2%
01%
00%
0/%
0.%
0-%
0,%
0+%
0*%
0)%
0(%
0'%
0&%
0%%
0$%
0#%
0"%
0!%
0~$
0}$
0|$
0{$
0z$
0y$
0x$
0w$
0v$
0u$
0t$
0s$
0r$
0q$
0p$
0o$
0n$
0m$
0l$
0k$
0j$
0i$
0h$
0g$
0f$
0e$
0d$
0c$
0b$
0a$
0`$
0_$
0^$
0]$
0\$
0[$
0Z$
0Y$
0X$
0W$
0V$
0U$
0T$
0S$
0R$
0Q$
$end
#40000
1"
1#
1$
1l!
1k!
1j!
#80000
0"
0#
0$
0l!
0k!
0j!
#120000
1"
1#
1$
1l!
1k!
1j!
#160000
0"
0#
0$
0l!
0k!
0j!
#200000
1"
1#
1$
1l!
1k!
1j!
#240000
0"
0#
0$
0l!
0k!
0j!
#280000
1"
1#
1$
1l!
1k!
1j!
#320000
0"
0#
0$
0l!
0k!
0j!
#360000
1"
1#
1$
1l!
1k!
1j!
#400000
0"
0#
0$
0l!
0k!
0j!
#440000
1"
1#
1$
1l!
1k!
1j!
#480000
0"
0#
0$
0l!
0k!
0j!
#520000
1"
1#
1$
1l!
1k!
1j!
#560000
0"
0#
0$
0l!
0k!
0j!
#600000
1"
1#
1$
1l!
1k!
1j!
#640000
0"
0#
0$
0l!
0k!
0j!
#680000
1"
1#
1$
1l!
1k!
1j!
#720000
0"
0#
0$
0l!
0k!
0j!
#760000
1"
1#
1$
1l!
1k!
1j!
#800000
0"
0#
0$
0l!
0k!
0j!
#840000
1"
1#
1$
1l!
1k!
1j!
#880000
0"
0#
0$
0l!
0k!
0j!
#920000
1"
1#
1$
1l!
1k!
1j!
#960000
0"
0#
0$
0l!
0k!
0j!
